Shurui Z – TikTok Video Popularity Analysis : What Makes Tiktok Videos Go Viral ?
…
Missing data Diagnostics

Code

#Percent missing per column
miss_pct <- sapply(df, function(x) mean(is.na(x))) * 100
miss_tbl <- tibble(column = names(miss_pct), pct_missing = miss_pct) |> 
  arrange(desc(pct_missing))
print(miss_tbl)

# A tibble: 36 × 2
   column          pct_missing
   <chr>                 <dbl>
 1 secu_id               100  
 2 short_id              100  
 3 ftc                   100  
 4 relation              100  
 5 is_under_age_18       100  
 6 room_id                99.8
 7 open_favorite          99.6
 8 comment_setting        97  
 9 bio_link               91.5
10 duet_setting           82.3
# ℹ 26 more rows
…
